{
    "elements": [
        {
            "id": 765331725,
            "lat": 45.9522506,
            "lon": 3.4796356,
            "tags": {
                "name": "Garage Voissier",
                "operator": "Citro\u00ebn",
                "shop": "car_repair",
                "source": "cadastre-dgi-fr source : Direction G\u00e9n\u00e9rale des Imp\u00f4ts - Cadastre. Mise \u00e0 jour : 2010"
            },
            "type": "node"
        },
        {
            "id": 765646672,
            "lat": 45.950112,
            "lon": 3.4794543,
            "tags": {
                "name": "Garage Peugeot",
                "operator": "Peugeot",
                "shop": "car_repair",
                "source": "cadastre-dgi-fr source : Direction G\u00e9n\u00e9rale des Imp\u00f4ts - Cadastre. Mise \u00e0 jour : 2010"
            },
            "type": "node"
        },
        {
            "id": 872513672,
            "lat": 45.9616809,
            "lon": 3.4751557,
            "tags": {
                "name": "Garage Debus",
                "operator": "Renault",
                "shop": "car_repair"
            },
            "type": "node"
        },
        {
            "id": 1215406553,
            "lat": 45.9500435,
            "lon": 3.4773614,
            "tags": {
                "name": "Communaut\u00e9 Emma\u00fcs",
                "opening_hours": "Mo 14:30-17:30; We 14:30-17:30; Sa 14:30-17:30",
                "shop": "variety_store"
            },
            "type": "node"
        },
        {
            "id": 4175493772,
            "lat": 45.9772171,
            "lon": 3.5195862,
            "tags": {
                "name": "Le Bistr'Eau d'Odon",
                "shop": "coffee"
            },
            "type": "node"
        },
        {
            "id": 4268139816,
            "lat": 45.9524686,
            "lon": 3.4794882,
            "tags": {
                "name": "Squish moto",
                "repair": "yes",
                "shop": "motorcycle"
            },
            "type": "node"
        },
        {
            "id": 5291194805,
            "lat": 45.9579234,
            "lon": 3.4752812,
            "tags": {
                "shop": "bakery"
            },
            "type": "node"
        },
        {
            "id": 5953405288,
            "lat": 45.9768081,
            "lon": 3.5199267,
            "tags": {
                "brand": "Vival",
                "brand:wikidata": "Q7937525",
                "name": "Vival",
                "opening_hours": "Tu,Th-Sa 08:30-12:30,16:30-19:00; We,Su 08:30-12:30",
                "opening_hours:covid19": "same",
                "shop": "convenience"
            },
            "type": "node"
        },
        {
            "id": 5953408285,
            "lat": 45.9769827,
            "lon": 3.5197146,
            "tags": {
                "shop": "hairdresser"
            },
            "type": "node"
        },
        {
            "id": 5953408485,
            "lat": 45.9774433,
            "lon": 3.5191565,
            "tags": {
                "name": "Boulangerie",
                "opening_hours": "Tu-Fr 06:45-12:30,16:00-19:00; Sa 07:00-12:30",
                "opening_hours:covid19": "Tu-Fr 06:45-12:30; Sa-Su 07:00-12:30",
                "shop": "bakery"
            },
            "type": "node"
        }
    ],
    "generator": "Overpass API 0.7.56.6 474850e8",
    "osm3s": {
        "copyright": "The data included in this document is from www.openstreetmap.org. The data is made available under ODbL.",
        "timestamp_osm_base": "2020-10-30T20:55:03Z"
    },
    "version": 0.6
}
